C:\Y\Maeven\projets\ecoleDeMusique5\src\main\java\Controller\CreationAdherentController.java
C:\Y\Maeven\projets\ecoleDeMusique5\src\main\java\Controller\PageAccueilController.java
C:\Y\Maeven\projets\ecoleDeMusique5\src\main\java\Controller\ListeAdherentController.java
C:\Y\Maeven\projets\ecoleDeMusique5\src\main\java\Controller\ICommand.java
C:\Y\Maeven\projets\ecoleDeMusique5\src\main\java\Controller\ModificationAdherentController.java
C:\Y\Maeven\projets\ecoleDeMusique5\src\main\java\modele\beans\Personne.java
C:\Y\Maeven\projets\ecoleDeMusique5\src\main\java\modele\dao\DaoPersonne.java
C:\Y\Maeven\projets\ecoleDeMusique5\src\main\java\Exceptions\ExceptionDao.java
C:\Y\Maeven\projets\ecoleDeMusique5\src\main\java\Controller\SuppressionAdherentController.java
C:\Y\Maeven\projets\ecoleDeMusique5\src\main\java\metier\CUDPersonne.java
C:\Y\Maeven\projets\ecoleDeMusique5\src\main\java\servlet\FrontController.java
C:\Y\Maeven\projets\ecoleDeMusique5\src\main\java\metier\ListeAdherents.java
C:\Y\Maeven\projets\ecoleDeMusique5\src\main\java\modele\forms\PersonneForm.java
